0	-2.62E-06
2.00E-09	-2.62E-06
0.00412	-3.33E-06
0.00813	-4.25E-06
0.01205	-5.39E-06
0.01606	-6.68E-06
0.02018	-8.39E-06
0.0241	-9.19E-06
0.02811	-1.04E-05
0.03213	-1.15E-05
0.03615	-1.31E-05
0.04016	-1.50E-05
0.04075	-1.53E-05
0.04134	-1.56E-05
0.04193	-1.59E-05
0.04251	-1.62E-05
0.0431	-1.65E-05
0.04369	-1.68E-05
0.04428	-1.71E-05
0.04488	-1.75E-05
0.04548	-1.79E-05
0.04608	-1.83E-05
0.04669	-1.87E-05
0.04729	-1.91E-05
0.04789	-1.94E-05
0.04849	-1.98E-05
0.04904	-2.01E-05
0.04958	-2.04E-05
0.05013	-2.08E-05
0.05067	-2.11E-05
0.05122	-2.14E-05
0.05176	-2.17E-05
0.05231	-2.21E-05
0.05633	-2.54E-05
0.0569	-2.58E-05
0.05747	-2.62E-05
0.05805	-2.65E-05
0.05862	-2.69E-05
0.05919	-2.73E-05
0.05977	-2.77E-05
0.06034	-2.81E-05
0.061	-2.87E-05
0.06166	-2.94E-05
0.06232	-2.99E-05
0.06298	-3.05E-05
0.06364	-3.11E-05
0.0643	-3.17E-05
0.06496	-3.23E-05
0.06676	-3.38E-05
0.06776	-3.47E-05
0.06837	-3.52E-05
0.06893	-3.56E-05
0.06949	-3.61E-05
0.07005	-3.65E-05
0.07061	-3.69E-05
0.07117	-3.74E-05
0.07173	-3.78E-05
0.07229	-3.82E-05
0.07259	-3.86E-05
0.07379	-3.99E-05
0.07579	-4.22E-05
0.07631	-4.28E-05
0.07661	-4.31E-05
0.07881	-4.54E-05
0.07981	-4.64E-05
0.08042	-4.71E-05
0.08444	-5.22E-05
0.08504	-5.31E-05
0.08684	-5.56E-05
0.08784	-5.70E-05
0.08845	-5.79E-05
0.08865	-5.81E-05
0.08905	-5.85E-05
0.09085	-6.06E-05
0.09185	-6.17E-05
0.09247	-6.23E-05
0.09307	-6.24E-05
0.09487	-6.26E-05
0.09587	-6.28E-05
0.09639	-6.28E-05
0.09649	-6.29E-05
0.09669	-6.30E-05
0.09709	-6.33E-05
0.09889	-6.43E-05
0.09989	-6.49E-05
0.1004	-6.52E-05
0.1005	-6.53E-05
0.1007	-6.54E-05
0.1011	-6.57E-05
0.1029	-6.68E-05
0.10452	-6.80E-05
0.10472	-6.84E-05
0.10512	-6.93E-05
0.10592	-7.10E-05
0.10692	-7.32E-05
0.10792	-7.54E-05
0.10843	-7.65E-05
0.10853	-7.67E-05
0.10873	-7.70E-05
0.10913	-7.77E-05
0.10993	-7.90E-05
0.11093	-8.07E-05
0.11193	-8.24E-05
0.11245	-8.33E-05
0.11255	-8.34E-05
0.11275	-8.37E-05
0.11315	-8.44E-05
0.11395	-8.57E-05
0.11495	-8.73E-05
0.11595	-8.89E-05
0.11647	-8.97E-05
0.11657	-8.99E-05
0.11677	-9.03E-05
0.11717	-9.10E-05
0.11797	-9.24E-05
0.11897	-9.41E-05
0.11997	-9.58E-05
0.12048	-9.67E-05
0.12058	-9.71E-05
0.12078	-9.77E-05
0.12118	-9.91E-05
0.12198	-1.02E-04
0.12298	-1.05E-04
0.12398	-1.09E-04
0.1245	-1.10E-04
0.1246	-1.11E-04
0.1248	-1.11E-04
0.1252	-1.12E-04
0.126	-1.14E-04
0.127	-1.17E-04
0.128	-1.20E-04
0.12851	-1.21E-04
0.12861	-1.22E-04
0.12881	-1.22E-04
0.12921	-1.24E-04
0.13001	-1.27E-04
0.13101	-1.31E-04
0.13201	-1.35E-04
0.13253	-1.37E-04
0.13263	-1.37E-04
0.13283	-1.38E-04
0.13323	-1.40E-04
0.13403	-1.43E-04
0.13503	-1.48E-04
0.13603	-1.52E-04
0.13655	-1.55E-04
0.13665	-1.55E-04
0.13685	-1.55E-04
0.13725	-1.56E-04
0.13805	-1.57E-04
0.13905	-1.59E-04
0.14005	-1.61E-04
0.14056	-1.62E-04
0.14066	-1.62E-04
0.14086	-1.62E-04
0.14126	-1.63E-04
0.14206	-1.63E-04
0.14306	-1.64E-04
0.14406	-1.65E-04
0.14458	-1.65E-04
0.14468	-1.65E-04
0.14488	-1.66E-04
0.14528	-1.66E-04
0.14608	-1.67E-04
0.14708	-1.69E-04
0.14808	-1.71E-04
0.14859	-1.71E-04
0.14869	-1.72E-04
0.14889	-1.73E-04
0.14929	-1.76E-04
0.15009	-1.80E-04
0.15109	-1.86E-04
0.15209	-1.92E-04
0.15261	-1.95E-04
0.15271	-1.96E-04
0.15291	-1.97E-04
0.15331	-2.00E-04
0.15411	-2.06E-04
0.15511	-2.12E-04
0.15611	-2.19E-04
0.15663	-2.23E-04
0.15673	-2.24E-04
0.15693	-2.25E-04
0.15733	-2.27E-04
0.15813	-2.33E-04
0.15913	-2.39E-04
0.16013	-2.46E-04
0.16064	-2.49E-04
0.16074	-2.50E-04
0.16094	-2.52E-04
0.16134	-2.55E-04
0.16314	-2.70E-04
0.16414	-2.78E-04
0.16476	-2.82E-04
0.16496	-2.84E-04
0.16536	-2.87E-04
0.16616	-2.92E-04
0.16716	-2.99E-04
0.16816	-3.06E-04
0.16867	-3.09E-04
0.16877	-3.10E-04
0.16897	-3.12E-04
0.17117	-3.28E-04
0.17217	-3.36E-04
0.17279	-3.42E-04
0.17299	-3.45E-04
0.17339	-3.51E-04
0.17419	-3.65E-04
0.17519	-3.81E-04
0.17619	-3.98E-04
0.17671	-4.06E-04
0.17681	-4.07E-04
0.17701	-4.09E-04
0.17741	-4.12E-04
0.17821	-4.20E-04
0.17921	-4.28E-04
0.18021	-4.37E-04
0.18072	-4.42E-04
0.18082	-4.43E-04
0.18102	-4.47E-04
0.18142	-4.53E-04
0.18222	-4.65E-04
0.18322	-4.80E-04
0.18422	-4.96E-04
0.18484	-5.06E-04
0.18504	-5.09E-04
0.18544	-5.16E-04
0.18624	-5.30E-04
0.18724	-5.48E-04
0.18824	-5.65E-04
0.18876	-5.75E-04
0.18886	-5.76E-04
0.18906	-5.80E-04
0.18946	-5.88E-04
0.19026	-6.02E-04
0.19126	-6.21E-04
0.19226	-6.40E-04
0.19277	-6.49E-04
0.19287	-6.51E-04
0.19307	-6.54E-04
0.19347	-6.61E-04
0.19427	-6.75E-04
0.19527	-6.93E-04
0.19627	-7.11E-04
0.19679	-7.20E-04
0.19689	-7.22E-04
0.19709	-7.26E-04
0.19749	-7.35E-04
0.19829	-7.52E-04
0.19929	-7.73E-04
0.20029	-7.94E-04
0.2008	-8.05E-04
0.2009	-8.08E-04
0.2011	-8.14E-04
0.2015	-8.25E-04
0.2023	-8.48E-04
0.2033	-8.76E-04
0.2043	-9.04E-04
0.20482	-9.18E-04
0.20492	-9.20E-04
0.20512	-9.23E-04
0.20552	-9.29E-04
0.20632	-9.42E-04
0.20732	-9.57E-04
0.20832	-9.73E-04
0.20884	-9.81E-04
0.20894	-9.84E-04
0.20914	-9.89E-04
0.20954	-0.001
0.21034	-0.00102
0.21134	-0.00105
0.21234	-0.00108
0.21285	-0.0011
0.21295	-0.0011
0.21315	-0.0011
0.21355	-0.0011
0.21435	-0.00111
0.21535	-0.00112
0.21635	-0.00113
0.21687	-0.00114
0.21697	-0.00114
0.21717	-0.00115
0.21757	-0.00115
0.21837	-0.00117
0.21937	-0.00119
0.22037	-0.00121
0.22088	-0.00122
0.22098	-0.00122
0.22118	-0.00123
0.22158	-0.00124
0.22238	-0.00126
0.22338	-0.00129
0.22438	-0.00132
0.2249	-0.00134
0.225	-0.00134
0.2252	-0.00134
0.2256	-0.00135
0.2264	-0.00136
0.2274	-0.00138
0.2284	-0.00139
0.22892	-0.0014
0.22902	-0.0014
0.22922	-0.00141
0.22962	-0.00142
0.23042	-0.00144
0.23142	-0.00147
0.23242	-0.0015
0.23293	-0.00151
0.23303	-0.00151
0.23323	-0.00152
0.23363	-0.00153
0.23443	-0.00155
0.23543	-0.00157
0.23643	-0.0016
0.23695	-0.00161
0.23705	-0.00161
0.23725	-0.00162
0.23765	-0.00163
0.23845	-0.00165
0.23945	-0.00167
0.24045	-0.00169
0.24096	-0.00171
0.24106	-0.00171
0.24126	-0.00172
0.24166	-0.00173
0.24246	-0.00176
0.24346	-0.0018
0.24446	-0.00184
0.24498	-0.00186
0.24508	-0.00186
0.24528	-0.00186
0.24568	-0.00187
0.24648	-0.0019
0.24748	-0.00192
0.24848	-0.00195
0.249	-0.00196
0.2491	-0.00197
0.2493	-0.00198
0.2497	-0.00199
0.2505	-0.00203
0.2515	-0.00207
0.2525	-0.00211
0.25301	-0.00214
0.25311	-0.00214
0.25331	-0.00214
0.25371	-0.00215
0.25451	-0.00217
0.25551	-0.0022
0.25703	-0.00224
0.25713	-0.00224
0.25733	-0.00224
0.25773	-0.00223
0.25783	-0.00223
0.25803	-0.00223
0.25843	-0.00223
0.25853	-0.00223
0.25873	-0.00223
0.25913	-0.00223
0.25993	-0.00222
0.26005	-0.00222
0.2603	-0.00222
0.2608	-0.00222
0.26104	-0.00222
0.26114	-0.00222
0.26134	-0.00221
0.26174	-0.00221
0.26254	-0.00219
0.26506	-0.00216
0.26516	-0.00215
0.26536	-0.00215
0.26576	-0.00215
0.26656	-0.00214
0.26756	-0.00213
0.26856	-0.00212
0.26908	-0.00212
0.26918	-0.00211
0.26938	-0.00211
0.26978	-0.0021
0.27058	-0.00208
0.27158	-0.00206
0.27258	-0.00203
0.27309	-0.00202
0.27319	-0.00202
0.27339	-0.00201
0.27379	-0.00201
0.27459	-0.00199
0.27559	-0.00197
0.27659	-0.00195
0.27711	-0.00194
0.27721	-0.00194
0.27741	-0.00194
0.27781	-0.00194
0.27861	-0.00194
0.27961	-0.00193
0.28112	-0.00193
0.28122	-0.00192
0.28142	-0.00192
0.28182	-0.00191
0.28262	-0.0019
0.28362	-0.00188
0.28514	-0.00186
0.28524	-0.00185
0.28544	-0.00185
0.28584	-0.00184
0.28664	-0.00183
0.28764	-0.00181
0.28864	-0.0018
0.28916	-0.00179
0.28926	-0.00179
0.28946	-0.00178
0.28986	-0.00178
0.29066	-0.00176
0.29166	-0.00175
0.29266	-0.00173
0.29317	-0.00172
0.29327	-0.00172
0.29347	-0.00172
0.29387	-0.00171
0.29467	-0.00169
0.29567	-0.00167
0.29667	-0.00165
0.29719	-0.00164
0.29729	-0.00164
0.29749	-0.00164
0.29789	-0.00163
0.29869	-0.00163
0.29969	-0.00161
0.30069	-0.0016
0.3012	-0.0016
0.3013	-0.00159
0.3015	-0.00159
0.3019	-0.00158
0.3027	-0.00156
0.3037	-0.00154
0.3047	-0.00152
0.30522	-0.00151
0.30532	-0.00151
0.30552	-0.0015
0.30592	-0.0015
0.30672	-0.00148
0.30772	-0.00147
0.30872	-0.00145
0.30924	-0.00144
0.30934	-0.00144
0.30954	-0.00143
0.30994	-0.00143
0.31174	-0.00139
0.31274	-0.00137
0.31325	-0.00136
0.31335	-0.00136
0.31355	-0.00136
0.31395	-0.00135
0.31575	-0.00132
0.31675	-0.0013
0.31727	-0.00129
0.31737	-0.00129
0.31757	-0.00128
0.31797	-0.00128
0.31977	-0.00126
0.32077	-0.00125
0.32129	-0.00124
0.32139	-0.00124
0.32159	-0.00123
0.32199	-0.00122
0.32379	-0.00118
0.32479	-0.00116
0.3253	-0.00115
0.3254	-0.00115
0.3256	-0.00115
0.3268	-0.00113
0.3288	-0.0011
0.32932	-0.00109
0.32962	-0.00108
0.33015	-0.00108
0.33068	-0.00107
0.33121	-0.00107
0.33174	-0.00106
0.33227	-0.00106
0.3328	-0.00105
0.33333	-0.00105
0.33363	-0.00104
0.33483	-0.00101
0.33529	-1.00E-03
0.33575	-9.88E-04
0.33621	-9.78E-04
0.33667	-9.68E-04
0.33713	-9.59E-04
0.33759	-9.51E-04
0.33805	-9.44E-04
0.33914	-9.31E-04
0.34023	-9.16E-04
0.34132	-9.01E-04
0.34241	-8.85E-04
0.3435	-8.68E-04
0.34459	-8.51E-04
0.34568	-8.33E-04
0.3474	-8.13E-04
0.34912	-7.93E-04
0.35084	-7.72E-04
0.35257	-7.51E-04
0.35429	-7.29E-04
0.35601	-7.06E-04
0.35773	-6.83E-04
0.36155	-6.30E-04
0.36273	-6.15E-04
0.3639	-6.00E-04
0.36508	-5.85E-04
0.36625	-5.71E-04
0.36743	-5.57E-04
0.3686	-5.43E-04
0.36978	-5.30E-04
0.37035	-5.24E-04
0.37093	-5.17E-04
0.3715	-5.11E-04
0.37207	-5.05E-04
0.37264	-4.99E-04
0.37322	-4.93E-04
0.37379	-4.87E-04
0.37494	-4.76E-04
0.37609	-4.64E-04
0.37724	-4.53E-04
0.37838	-4.41E-04
0.37953	-4.29E-04
0.38068	-4.16E-04
0.38183	-4.03E-04
0.38298	-3.92E-04
0.38412	-3.80E-04
0.38527	-3.69E-04
0.38642	-3.58E-04
0.38757	-3.48E-04
0.38871	-3.38E-04
0.38986	-3.28E-04
0.39043	-3.22E-04
0.39101	-3.16E-04
0.39158	-3.11E-04
0.39215	-3.06E-04
0.39272	-3.01E-04
0.3933	-2.96E-04
0.39387	-2.91E-04
0.39769	-2.66E-04
0.40161	-2.42E-04
0.40562	-2.23E-04
0.40994	-1.99E-04
0.41375	-1.79E-04
0.41797	-1.59E-04
0.41909	-1.56E-04
0.42021	-1.52E-04
0.42133	-1.47E-04
0.42244	-1.43E-04
0.42356	-1.38E-04
0.42468	-1.34E-04
0.4258	-1.29E-04
0.42982	-1.12E-04
0.43383	-9.90E-05
0.43775	-8.02E-05
0.44177	-6.71E-05
0.44578	-4.88E-05
0.4498	-3.75E-05
0.45382	-2.73E-05
0.45783	-1.79E-05
0.46185	-1.08E-05
0.46586	-6.56E-06
0.46988	-2.59E-06
0.4739	-3.19E-06
0.47791	-4.26E-06
0.48203	-5.47E-06
0.48594	-6.81E-06
0.48996	-1.03E-05
0.49398	-1.77E-05
0.49799	-2.83E-05
0.49914	-3.14E-05
0.50028	-3.44E-05
0.50143	-3.74E-05
0.50258	-4.04E-05
0.50373	-4.34E-05
0.50487	-4.63E-05
0.50602	-4.92E-05
0.51014	-6.87E-05
0.51406	-8.33E-05
0.51817	-1.09E-04
0.52219	-1.23E-04
0.5262	-1.36E-04
0.53012	-1.58E-04
0.53414	-1.80E-04
0.53471	-1.82E-04
0.53529	-1.85E-04
0.53586	-1.88E-04
0.53643	-1.91E-04
0.537	-1.94E-04
0.53758	-1.96E-04
0.53815	-1.99E-04
0.54217	-2.27E-04
0.54267	-2.30E-04
0.54317	-2.33E-04
0.54367	-2.36E-04
0.54417	-2.39E-04
0.54467	-2.42E-04
0.54517	-2.46E-04
0.54567	-2.49E-04
0.54648	-2.54E-04
0.54705	-2.58E-04
0.54763	-2.61E-04
0.5482	-2.65E-04
0.54878	-2.69E-04
0.54935	-2.73E-04
0.54993	-2.77E-04
0.5505	-2.82E-04
0.5527	-3.00E-04
0.5537	-3.08E-04
0.55452	-3.15E-04
0.55672	-3.34E-04
0.55772	-3.42E-04
0.55833	-3.48E-04
0.56073	-3.77E-04
0.56173	-3.89E-04
0.56235	-3.96E-04
0.56375	-4.14E-04
0.56575	-4.39E-04
0.56627	-4.46E-04
0.56637	-4.48E-04
0.56657	-4.50E-04
0.56777	-4.68E-04
0.56877	-4.82E-04
0.56977	-4.97E-04
0.57028	-5.04E-04
0.57038	-5.05E-04
0.57058	-5.08E-04
0.57098	-5.14E-04
0.57278	-5.41E-04
0.57378	-5.56E-04
0.5744	-5.65E-04
0.5746	-5.67E-04
0.575	-5.72E-04
0.5758	-5.80E-04
0.5768	-5.91E-04
0.5778	-6.02E-04
0.57831	-6.08E-04
0.57841	-6.09E-04
0.57861	-6.12E-04
0.57901	-6.18E-04
0.57981	-6.30E-04
0.58081	-6.45E-04
0.58181	-6.60E-04
0.58233	-6.68E-04
0.58243	-6.69E-04
0.58263	-6.73E-04
0.58303	-6.79E-04
0.58383	-6.92E-04
0.58483	-7.08E-04
0.58583	-7.25E-04
0.58635	-7.33E-04
0.58645	-7.35E-04
0.58665	-7.38E-04
0.58705	-7.45E-04
0.58785	-7.57E-04
0.58885	-7.74E-04
0.58985	-7.90E-04
0.59036	-7.98E-04
0.59046	-8.00E-04
0.59066	-8.04E-04
0.59106	-8.11E-04
0.59186	-8.27E-04
0.59286	-8.47E-04
0.59386	-8.66E-04
0.59438	-8.76E-04
0.59448	-8.78E-04
0.59468	-8.81E-04
0.59508	-8.88E-04
0.59588	-9.02E-04
0.59688	-9.19E-04
0.59788	-9.36E-04
0.59839	-9.45E-04
0.59849	-9.46E-04
0.59869	-9.49E-04
0.59909	-9.54E-04
0.59989	-9.65E-04
0.60089	-9.79E-04
0.60189	-9.92E-04
0.60241	-9.99E-04
0.60251	-0.001
0.60271	-0.001
0.60311	-0.00101
0.60391	-0.00102
0.60491	-0.00104
0.60591	-0.00106
0.60643	-0.00107
0.60653	-0.00107
0.60673	-0.00107
0.60713	-0.00108
0.60793	-0.00109
0.60893	-0.0011
0.60993	-0.00111
0.61044	-0.00112
0.61054	-0.00112
0.61074	-0.00113
0.61114	-0.00114
0.61194	-0.00116
0.61294	-0.00119
0.61394	-0.00122
0.61446	-0.00124
0.61456	-0.00124
0.61476	-0.00124
0.61516	-0.00125
0.61596	-0.00126
0.61696	-0.00128
0.61796	-0.00129
0.61847	-0.0013
0.61857	-0.0013
0.61877	-0.00131
0.61917	-0.00131
0.61997	-0.00133
0.62097	-0.00135
0.62197	-0.00138
0.62249	-0.00139
0.62259	-0.00139
0.62279	-0.00139
0.62319	-0.0014
0.62399	-0.00142
0.62499	-0.00144
0.62599	-0.00146
0.62651	-0.00147
0.62661	-0.00147
0.62681	-0.00148
0.62721	-0.00149
0.62801	-0.0015
0.62901	-0.00153
0.63001	-0.00155
0.63052	-0.00157
0.63062	-0.00157
0.63082	-0.00157
0.63122	-0.00158
0.63202	-0.0016
0.63302	-0.00162
0.63402	-0.00165
0.63454	-0.00166
0.63464	-0.00166
0.63484	-0.00167
0.63524	-0.00167
0.63604	-0.00169
0.63704	-0.00172
0.63804	-0.00174
0.63855	-0.00175
0.63865	-0.00175
0.63885	-0.00175
0.63925	-0.00175
0.64005	-0.00174
0.64105	-0.00173
0.64205	-0.00173
0.64257	-0.00172
0.64267	-0.00172
0.64287	-0.00173
0.64327	-0.00174
0.64407	-0.00176
0.64507	-0.00179
0.64607	-0.00182
0.64659	-0.00184
0.64669	-0.00184
0.64689	-0.00184
0.64729	-0.00185
0.64809	-0.00187
0.64909	-0.00189
0.65009	-0.00192
0.6506	-0.00193
0.6507	-0.00193
0.6509	-0.00193
0.6513	-0.00193
0.6521	-0.00193
0.6531	-0.00193
0.6541	-0.00193
0.65462	-0.00193
0.65472	-0.00193
0.65492	-0.00193
0.65532	-0.00192
0.65612	-0.00192
0.65712	-0.00192
0.65812	-0.00191
0.65863	-0.00191
0.65873	-0.00191
0.65893	-0.00191
0.65933	-0.00191
0.66013	-0.00191
0.66113	-0.00191
0.66213	-0.00191
0.66265	-0.00191
0.66275	-0.00191
0.66295	-0.0019
0.66335	-0.0019
0.66415	-0.00188
0.66515	-0.00186
0.66615	-0.00185
0.66667	-0.00184
0.66677	-0.00183
0.66697	-0.00183
0.66737	-0.00181
0.66817	-0.00179
0.66917	-0.00176
0.67017	-0.00172
0.67068	-0.00171
0.67078	-0.0017
0.67098	-0.00169
0.67138	-0.00168
0.67218	-0.00165
0.67318	-0.00161
0.67418	-0.00157
0.6747	-0.00155
0.6748	-0.00155
0.675	-0.00155
0.6754	-0.00155
0.6762	-0.00155
0.6772	-0.00154
0.6782	-0.00154
0.67871	-0.00154
0.67881	-0.00154
0.67901	-0.00154
0.67941	-0.00154
0.68021	-0.00153
0.68121	-0.00153
0.68221	-0.00153
0.68273	-0.00152
0.68283	-0.00152
0.68303	-0.00152
0.68343	-0.00152
0.68423	-0.00151
0.68523	-0.00151
0.68623	-0.0015
0.68675	-0.0015
0.68685	-0.00149
0.68705	-0.00149
0.68745	-0.00149
0.68825	-0.00149
0.68925	-0.00148
0.69025	-0.00147
0.69076	-0.00147
0.69086	-0.00147
0.69106	-0.00147
0.69146	-0.00147
0.69226	-0.00147
0.69326	-0.00147
0.69426	-0.00147
0.69478	-0.00147
0.69488	-0.00146
0.69508	-0.00146
0.69548	-0.00144
0.69628	-0.00141
0.69728	-0.00137
0.69828	-0.00133
0.6988	-0.00131
0.6989	-0.00131
0.6991	-0.00129
0.6995	-0.00127
0.7003	-0.00123
0.7013	-0.00117
0.7023	-0.00112
0.70281	-0.00109
0.70291	-0.00108
0.70311	-0.00108
0.70351	-0.00107
0.70431	-0.00104
0.70531	-0.00101
0.70631	-9.79E-04
0.70683	-9.62E-04
0.70693	-9.58E-04
0.70713	-9.48E-04
0.70753	-9.30E-04
0.70833	-8.93E-04
0.70933	-8.46E-04
0.71033	-7.99E-04
0.71084	-7.76E-04
0.71094	-7.71E-04
0.71114	-7.62E-04
0.71154	-7.43E-04
0.71234	-7.05E-04
0.71334	-6.57E-04
0.71434	-6.10E-04
0.71486	-5.85E-04
0.71496	-5.84E-04
0.71516	-5.80E-04
0.71736	-5.44E-04
0.71888	-5.18E-04
0.71898	-5.17E-04
0.71918	-5.15E-04
0.71958	-5.10E-04
0.72038	-5.01E-04
0.72138	-4.89E-04
0.72238	-4.78E-04
0.72289	-4.72E-04
0.72299	-4.71E-04
0.72319	-4.68E-04
0.72539	-4.43E-04
0.72691	-4.26E-04
0.72701	-4.25E-04
0.72721	-4.24E-04
0.72761	-4.23E-04
0.72841	-4.20E-04
0.72941	-4.16E-04
0.73041	-4.12E-04
0.73092	-4.10E-04
0.73102	-4.10E-04
0.73122	-4.09E-04
0.73162	-4.08E-04
0.73242	-4.06E-04
0.73342	-4.03E-04
0.73442	-4.00E-04
0.73494	-3.99E-04
0.73504	-3.99E-04
0.73524	-3.98E-04
0.73564	-3.98E-04
0.73644	-3.97E-04
0.73744	-3.96E-04
0.73844	-3.95E-04
0.73896	-3.95E-04
0.73906	-3.95E-04
0.73926	-3.95E-04
0.73966	-3.96E-04
0.74046	-3.98E-04
0.74146	-4.00E-04
0.74246	-4.01E-04
0.74297	-4.02E-04
0.74307	-4.03E-04
0.74327	-4.04E-04
0.74367	-4.06E-04
0.74447	-4.11E-04
0.74547	-4.17E-04
0.74647	-4.23E-04
0.74699	-4.26E-04
0.74709	-4.26E-04
0.74729	-4.27E-04
0.74769	-4.30E-04
0.74849	-4.35E-04
0.74949	-4.41E-04
0.75049	-4.47E-04
0.751	-4.50E-04
0.7511	-4.51E-04
0.7513	-4.53E-04
0.7517	-4.56E-04
0.7525	-4.62E-04
0.7535	-4.69E-04
0.7545	-4.77E-04
0.75502	-4.81E-04
0.75512	-4.82E-04
0.75532	-4.84E-04
0.75572	-4.87E-04
0.75652	-4.95E-04
0.75752	-5.04E-04
0.75852	-5.13E-04
0.75904	-5.18E-04
0.75914	-5.19E-04
0.75934	-5.19E-04
0.75974	-5.21E-04
0.76054	-5.24E-04
0.76154	-5.28E-04
0.76254	-5.31E-04
0.76305	-5.33E-04
0.76315	-5.33E-04
0.76335	-5.33E-04
0.76375	-5.33E-04
0.76455	-5.33E-04
0.76555	-5.33E-04
0.76655	-5.33E-04
0.76707	-5.33E-04
0.76717	-5.33E-04
0.76737	-5.33E-04
0.76777	-5.32E-04
0.76857	-5.31E-04
0.76957	-5.30E-04
0.77057	-5.29E-04
0.77108	-5.28E-04
0.77118	-5.28E-04
0.77138	-5.28E-04
0.77178	-5.28E-04
0.77258	-5.28E-04
0.7751	-5.28E-04
0.7752	-5.29E-04
0.7754	-5.30E-04
0.7758	-5.33E-04
0.7766	-5.38E-04
0.7776	-5.44E-04
0.7786	-5.50E-04
0.77912	-5.53E-04
0.77922	-5.52E-04
0.77942	-5.49E-04
0.77982	-5.44E-04
0.78062	-5.33E-04
0.78313	-4.99E-04
0.78323	-4.98E-04
0.78343	-4.97E-04
0.78383	-4.93E-04
0.78463	-4.86E-04
0.78563	-4.77E-04
0.78663	-4.68E-04
0.78715	-4.63E-04
0.78725	-4.62E-04
0.78745	-4.60E-04
0.78785	-4.55E-04
0.78865	-4.46E-04
0.78965	-4.35E-04
0.79065	-4.24E-04
0.79116	-4.18E-04
0.79126	-4.17E-04
0.79146	-4.16E-04
0.79186	-4.14E-04
0.79266	-4.09E-04
0.79366	-4.04E-04
0.79466	-3.98E-04
0.79518	-3.95E-04
0.79528	-3.94E-04
0.79548	-3.94E-04
0.79588	-3.92E-04
0.79768	-3.84E-04
0.79868	-3.79E-04
0.7992	-3.77E-04
0.7993	-3.77E-04
0.7995	-3.76E-04
0.7999	-3.76E-04
0.8017	-3.72E-04
0.8027	-3.71E-04
0.80321	-3.70E-04
0.80331	-3.70E-04
0.80351	-3.69E-04
0.80391	-3.68E-04
0.80571	-3.63E-04
0.80671	-3.61E-04
0.80723	-3.60E-04
0.80733	-3.59E-04
0.80753	-3.58E-04
0.80806	-3.55E-04
0.80859	-3.52E-04
0.80912	-3.49E-04
0.80965	-3.46E-04
0.81018	-3.43E-04
0.81071	-3.40E-04
0.81124	-3.37E-04
0.81194	-3.32E-04
0.81246	-3.29E-04
0.81297	-3.26E-04
0.81349	-3.23E-04
0.81401	-3.20E-04
0.81453	-3.17E-04
0.81504	-3.14E-04
0.81556	-3.12E-04
0.81958	-2.99E-04
0.82015	-2.96E-04
0.82073	-2.93E-04
0.8213	-2.90E-04
0.82187	-2.87E-04
0.82244	-2.84E-04
0.82302	-2.81E-04
0.82359	-2.78E-04
0.82416	-2.77E-04
0.82474	-2.76E-04
0.82531	-2.74E-04
0.82589	-2.73E-04
0.82646	-2.71E-04
0.82704	-2.69E-04
0.82761	-2.67E-04
0.83143	-2.47E-04
0.83564	-2.42E-04
0.83679	-2.38E-04
0.83793	-2.34E-04
0.83908	-2.30E-04
0.84023	-2.26E-04
0.84138	-2.22E-04
0.84252	-2.18E-04
0.84367	-2.14E-04
0.84479	-2.10E-04
0.84591	-2.06E-04
0.84703	-2.02E-04
0.84815	-1.98E-04
0.84927	-1.93E-04
0.85039	-1.88E-04
0.85151	-1.83E-04
0.85266	-1.79E-04
0.8538	-1.75E-04
0.85495	-1.71E-04
0.8561	-1.68E-04
0.85725	-1.65E-04
0.85839	-1.63E-04
0.85954	-1.61E-04
0.86355	-1.60E-04
0.86421	-1.59E-04
0.86487	-1.57E-04
0.86553	-1.56E-04
0.86619	-1.54E-04
0.86685	-1.53E-04
0.86751	-1.52E-04
0.86817	-1.51E-04
0.86869	-1.51E-04
0.8692	-1.50E-04
0.86972	-1.50E-04
0.87024	-1.49E-04
0.87076	-1.48E-04
0.87127	-1.48E-04
0.87179	-1.47E-04
0.8756	-1.37E-04
0.87675	-1.33E-04
0.87789	-1.29E-04
0.87904	-1.25E-04
0.88019	-1.21E-04
0.88134	-1.18E-04
0.88248	-1.14E-04
0.88363	-1.11E-04
0.88478	-1.09E-04
0.88593	-1.08E-04
0.88708	-1.06E-04
0.88822	-1.05E-04
0.88937	-1.03E-04
0.89052	-1.02E-04
0.89167	-1.01E-04
0.89227	-1.00E-04
0.89287	-9.92E-05
0.89347	-9.83E-05
0.89408	-9.73E-05
0.89468	-9.64E-05
0.89528	-9.55E-05
0.89588	-9.47E-05
0.89708	-9.37E-05
0.89829	-9.26E-05
0.89949	-9.14E-05
0.9007	-9.01E-05
0.9019	-8.87E-05
0.90311	-8.71E-05
0.90431	-8.55E-05
0.90773	-8.07E-05
0.91195	-7.26E-05
0.91596	-6.72E-05
0.91978	-6.04E-05
0.92093	-5.92E-05
0.92207	-5.80E-05
0.92322	-5.66E-05
0.92437	-5.52E-05
0.92552	-5.37E-05
0.92666	-5.21E-05
0.92781	-5.05E-05
0.93183	-4.43E-05
0.93584	-3.96E-05
0.93986	-3.60E-05
0.94046	-3.54E-05
0.94107	-3.48E-05
0.94167	-3.41E-05
0.94227	-3.35E-05
0.94287	-3.29E-05
0.94348	-3.24E-05
0.94408	-3.18E-05
0.9452	-3.10E-05
0.94632	-3.02E-05
0.94744	-2.94E-05
0.94855	-2.85E-05
0.94967	-2.76E-05
0.95079	-2.67E-05
0.95191	-2.57E-05
0.95306	-2.51E-05
0.9542	-2.45E-05
0.95535	-2.39E-05
0.9565	-2.34E-05
0.95765	-2.28E-05
0.95879	-2.22E-05
0.95994	-2.17E-05
0.96396	-1.83E-05
0.96787	-1.60E-05
0.97219	-1.41E-05
0.9762	-1.24E-05
0.97992	-1.10E-05
0.98394	-9.54E-06
0.98805	-8.42E-06
0.99197	-7.20E-06
0.99598	-6.08E-06
0.99948	-5.10E-06
1	-4.95E-06
