********
.inc "D:\Google Drive\aguirref@ieee.org\research\Merck-TU_Darmstadt-UAB\articles\fitting_table-with-legs\CRS_device.cir"

XCRS_DMM positive-1 central 0 H+ H H- CRS
R_CRS-1 H+ 0 10Meg
R_CRS-2 H 0 10Meg
R_CRS-3 H- 0 10Meg

*Rcomp positive positive-1 R=if(I(Rcomp)<CC,1,V(positive,positive-1)/CC)
Rcomp positive positive-1 R=1
* Voltage signal
Vsignal_QMM	positive 0 PWL file="D:\Google Drive\aguirref@ieee.org\research\Merck-TU_Darmstadt-UAB\articles\fitting_table-with-legs\signal_bias_V.csv"
* Current signal
Iref pos_iref 0 PWL file="D:\Google Drive\aguirref@ieee.org\research\Merck-TU_Darmstadt-UAB\articles\fitting_table-with-legs\measured_R.csv"
Rref pos_iref 0 1

.param CC=10e-3

.PRINT I(*) V(*)
.tran 0 400 0 1m
